Address,Data
0x0002,0x53
0x0003,0x00
0x0007,0x01
0x0009,0xFF
0x000A,0xFF
0x000C,0x00
0x000D,0x00
0x000F,0x00
0x0010,0x0F
0x0011,0x8C
0x0012,0x8C
0x0013,0x8C
0x0014,0x8C
0x0015,0x8C
0x0016,0x8C
0x0017,0x8C
0x001A,0x0C
0x001B,0x35
0x001C,0x00
0x001D,0x0F
0x001E,0xF0
0x001F,0x00
0x0020,0x09
0x0021,0x50
0x002A,0x00
0x002B,0x01
0x002C,0x00
0x002D,0x22
0x002E,0x80
0x002F,0x00
0x0030,0x00
0x0031,0x00
0x005A,0x00
0x005B,0x00
0x0095,0x00
0x0096,0x00
0x0097,0x00
0x0098,0x00
0x0099,0x00
0x009A,0x00
0x009B,0x00
0x00A2,0x00
0x00A3,0x00
0x00A4,0x00
0x00B7,0x92
